<?xml version="1.0" encoding="UTF-8"?>
<!DOCTYPE svg PUBLIC "-//W3C//DTD SVG 1.1//EN" "http://www.w3.org/Graphics/SVG/1.1/DTD/svg11.dtd">
<!-- Creator: CorelDRAW 2018 (64-Bit) -->
<svg xmlns="http://www.w3.org/2000/svg" xml:space="preserve" width="12.171mm" height="11.113mm" version="1.1" style="shape-rendering:geometricPrecision; text-rendering:geometricPrecision; image-rendering:optimizeQuality; fill-rule:evenodd; clip-rule:evenodd"
viewBox="0 0 1217.1 1111.3"
 xmlns:xlink="http://www.w3.org/1999/xlink">
 <defs>
  <style type="text/css">
   <![CDATA[
    .fil0 {fill:#8F8F8F}
   ]]>
  </style>
 </defs>
 <g id="Слой_x0020_1">
  <metadata id="CorelCorpID_0Corel-Layer"/>
  <g id="_2371848547840">
   <path class="fil0" d="M714.85 457.15l9.76 -24.26 -161.82 -6 7.53 24.85 144.53 5.41zm-18.01 45.02l9.71 -24.28 -129.7 -4.8 7.5 24.87 112.49 4.21zm474.53 -381.77c1.09,-33.04 10.32,-47.17 -43.22,-38.03 -160.08,27.33 -282.02,-53.84 -459.89,-76.63 -284.67,-36.54 -576.75,114.09 -576.75,114.09l144.82 735.33c0,0 196.11,-116.62 398.9,-116.62 155.01,0 363.29,45.06 543.72,26.39 17,-1.79 39.1,0.63 38.13,-31.46 -3.4,-110.68 -53.34,-382.32 -45.7,-613.07l-0.01 0zm-250.52 2.99l-106.9 112.81 -36.16 -38.75 51.75 -45.8 -52.95 -33.61 144.26 5.35zm97.3 93.39l-50.65 131.19 -15.91 -61.83 -90.76 13.67 -25.23 -35.78 182.55 -47.25zm-363.39 -41.25c75.11,2.78 134.23,48.96 131.82,103.06 -0.4,9.08 -2.46,17.71 -6.11,25.99l-128.83 -73.87 -133.92 63.55c-2.61,-8.28 -3.95,-16.93 -3.55,-25.79 2.4,-54.08 65.24,-95.75 140.58,-92.95l0.01 0.01zm63.91 133.9l-18.55 64.37 -0.82 -0.02 -22.06 -66.48 -54.42 -2 -26.49 64.67 -0.86 -0.04 -15.53 -65.74 -0.11 -0.08 71.03 -34.43 67.81 39.75zm-180.44 -200.23l-55.68 29.56 47.55 49.46 -39.46 36.01 -96.56 -120.39 144.15 5.36zm-71.6 141.12l-28.32 33.8 -89.23 -20.36 -21.24 60.48 -39 -134.51 177.79 60.59zm-247.27 113.78l205.77 -48.54 -14.04 48.81 -83.51 15.6 15.02 51.97 -123.24 -67.84zm86.61 113.31l108.12 -55.53 79.73 287.46 -187.85 -231.93zm357.69 107.58l6.81 -17.06 -65.49 -2.42 5.32 17.23 0 0.08c-24.37,-8.25 -50.99,-26.09 -86.96,-53.93 -98.94,-76.63 -68.16,-164.4 -68.16,-164.4l77.15 -37.34 0 0.04 23.93 78.29 63.96 2.38 27.02 -66.12 0.82 0.06 21.28 67.89 63.58 2.38 30.72 -76.33 -0.1 -0.13 73.79 43.13c0,0 21.74,88.82 -82.78,158.69 -38.07,25.5 -65.99,41.38 -90.91,47.57l0.02 -0.01zm104.61 134.54l104.73 -280.63 102.95 63.4 -207.68 217.23zm175.04 -265.29l19.56 -50.71 -81.85 -21.71 -9.69 -49.72 200.75 63.64 -128.77 58.5zm-264.46 92.97l9.67 -24.26 -97.55 -3.62 7.54 24.91 80.34 2.97zm-678.83 -416.56l188.02 972.92c0,0 40.65,22.83 58.43,-10.13l-185.48 -975.47c0.02,0 -38.09,-25.35 -60.97,12.68z"/>
  </g>
 </g>
</svg>
