<?xml version="1.0" encoding="UTF-8"?>
<!DOCTYPE svg PUBLIC "-//W3C//DTD SVG 1.1//EN" "http://www.w3.org/Graphics/SVG/1.1/DTD/svg11.dtd">
<!-- Creator: CorelDRAW 2018 (64-Bit) -->
<svg xmlns="http://www.w3.org/2000/svg" xml:space="preserve" width="3.969mm" height="3.969mm" version="1.1" style="shape-rendering:geometricPrecision; text-rendering:geometricPrecision; image-rendering:optimizeQuality; fill-rule:evenodd; clip-rule:evenodd"
viewBox="0 0 396.9 396.9"
 xmlns:xlink="http://www.w3.org/1999/xlink">
 <defs>
  <style type="text/css">
   <![CDATA[
    .fil0 {fill:#CA3030}
    .fil1 {fill:white}
   ]]>
  </style>
 </defs>
 <g id="Слой_x0020_1">
  <metadata id="CorelCorpID_0Corel-Layer"/>
  <path class="fil0" d="M322.48 0.01l-248.05 0c-40.94,0 -74.42,33.46 -74.42,74.42l0 248.05c0,40.94 33.48,74.41 74.42,74.41l248.05 0c40.93,0 74.41,-33.46 74.41,-74.41l0 -248.05c0,-40.96 -33.48,-74.42 -74.41,-74.42z"/>
  <path class="fil1" d="M225.39 277.17c-19.91,0 -38.58,-10.08 -44.97,-21.34 0,0 -10.7,39.45 -12.95,47.01 -7.92,26.8 -31.43,53.74 -33.21,55.88 -1.22,1.65 -4.02,1.1 -4.37,-0.94 -0.48,-3.4 -6.46,-37.31 0.59,-65.02 3.51,-13.8 23.64,-93.11 23.64,-93.11 0,0 -5.86,-10.91 -5.86,-27.04 0,-25.37 15.76,-44.28 35.48,-44.28 16.72,0 24.84,11.67 24.84,25.67 0,15.7 -10.76,39 -16.24,60.74 -4.7,18.05 9.73,32.86 28.99,32.86 34.85,0 58.36,-41.61 58.36,-90.98 0,-37.34 -27.13,-65.45 -76.53,-65.45 -55.83,0 -90.6,38.7 -90.6,81.87 0,14.92 4.71,25.43 12.11,33.58 3.4,3.78 3.87,5.21 2.68,9.51 -0.95,3.14 -2.91,10.75 -3.78,13.75 -1.22,4.35 -5.02,5.81 -9.21,4.25 -25.78,-9.76 -37.7,-35.94 -37.7,-65.28 0,-48.58 44.08,-106.82 131.52,-106.82 70.33,0 116.52,47.24 116.52,98.01 0,66.99 -40.16,117.13 -99.31,117.13z"/>
 </g>
</svg>
