<?xml version="1.0" encoding="UTF-8"?>
<!DOCTYPE svg PUBLIC "-//W3C//DTD SVG 1.1//EN" "http://www.w3.org/Graphics/SVG/1.1/DTD/svg11.dtd">
<!-- Creator: CorelDRAW 2018 (64-Bit) -->
<svg xmlns="http://www.w3.org/2000/svg" xml:space="preserve" width="16.672mm" height="13.618mm" version="1.1" style="shape-rendering:geometricPrecision; text-rendering:geometricPrecision; image-rendering:optimizeQuality; fill-rule:evenodd; clip-rule:evenodd"
viewBox="0 0 1667.2 1361.8"
 xmlns:xlink="http://www.w3.org/1999/xlink">
 <defs>
  <style type="text/css">
   <![CDATA[
    .fil4 {fill:#282829}
    .fil3 {fill:#171614}
    .fil0 {fill:#EE0005}
    .fil1 {fill:#F9A000}
    .fil2 {fill:#FF6300}
   ]]>
  </style>
 </defs>
 <g id="Слой_x0020_1">
  <metadata id="CorelCorpID_0Corel-Layer"/>
  <circle class="fil0" cx="514.18" cy="514.22" r="514.18"/>
  <circle class="fil1" cx="1153.01" cy="514.22" r="514.18"/>
  <path class="fil2" d="M638.84 514.21c0,163.26 76.1,308.74 194.76,402.92 118.65,-94.19 194.76,-239.66 194.76,-402.92 0,-163.26 -76.1,-308.74 -194.76,-402.92 -118.65,94.19 -194.76,239.66 -194.76,402.92z"/>
  <path class="fil3" d="M202.99 1182.66c-21.29,0 -42.59,11.72 -55.41,36.68 -8.47,-21.66 -26.1,-36.68 -48.13,-36.68 -24.59,0 -40.75,13.56 -48.81,27.89l0 -13.23c0,-7.33 -8.06,-12.46 -17.26,-12.46 -11.36,0 -19.1,5.13 -19.1,12.46l0 61.15c12.3,17.67 25.16,34.93 38.56,51.75l0 -55.25c0,-24.96 16.89,-38.19 34.16,-38.19 17.99,0 34.11,15.07 34.11,37.83l0 91.8c0,8.8 10.31,12.46 19.1,12.46 9.94,0 19.46,-3.66 19.46,-12.46l0 -92.17c0,-23.86 17.27,-37.82 34.53,-37.82 16.9,0 34.16,13.23 34.16,38.55l0 91.08c0,6.23 9.16,12.82 19.1,12.82 10.62,0 19.42,-6.6 19.42,-12.82l0 -91.08c-0.01,-46.25 -30.83,-72.31 -63.89,-72.31zm158.26 0c-24.96,0 -55.46,10.26 -55.46,23.49 0,8.8 4.81,19.46 13.97,19.46 7.33,0 13.96,-11.03 40.75,-11.03 26.79,0 36.36,20.93 36.36,39.65l0 6.6 -16.16 0c-51.02,0 -85.91,11.04 -85.91,52.52 0,33.06 22.03,48.45 48.82,48.45 24.95,0 42.58,-13.56 55.45,-28.62l0 12.86c0,6.96 7.7,12.83 17.63,12.83 10.62,0 18.73,-5.87 18.73,-12.83l0 -92.17c0,-36.73 -20.2,-71.21 -74.18,-71.21zm35.62 113.06c0,17.63 -20.93,36.73 -39.29,36.73 -13.59,0 -23.85,-7.33 -23.85,-23.86 0,-23.49 26.05,-26.47 53.94,-26.47l9.2 0 0 13.6zm106.1 -62.05c0,-9.16 8.07,-21.29 29.73,-21.29 20.6,0 31.96,10.67 39.65,10.67 9.2,0 14.7,-13.24 14.7,-18.73 0,-11.77 -27.53,-21.66 -55.09,-21.66 -46.25,0 -62.78,27.52 -62.78,52.84 0,60.95 88.52,38.19 88.52,76.75 0,9.89 -7.01,19.83 -31.23,19.83 -31.55,0 -39.29,-16.9 -48.81,-16.9 -7.74,0 -13.24,10.67 -13.24,17.26 0,13.97 26.83,29.36 63.15,29.36 41.49,0 64.61,-19.83 64.61,-51.02 0,-66.07 -89.21,-44.78 -89.21,-77.11zm196.82 92.18l-12.87 0c-19.1,0 -25.69,-6.63 -25.69,-24.27l0 -88.1 44.79 0c6.59,0 10.66,-6.96 10.66,-14.33 0,-7.33 -4.07,-14.29 -10.66,-14.29l-44.79 0 0 -67.22c0,-7.33 -9.94,-12.46 -19.46,-12.46 -9.2,0 -19.1,5.13 -19.1,12.46l0 183.94c0,40.02 22.39,57.29 64.25,57.29l12.86 0c10.99,0 16.49,-8.06 16.49,-16.53 0.01,-8.43 -5.49,-16.49 -16.48,-16.49zm168.51 -9.2c-9.93,0 -18.73,13.96 -44.78,13.96 -28.3,0 -47.76,-15.43 -47.76,-40.02l0 -8.47 77.48 0c16.53,0 33.42,-1.09 33.42,-31.55 0,-40.02 -33.79,-67.91 -73.08,-67.91 -42.22,0 -76.38,32.65 -76.38,71.21l0 34.89c0,43.69 35.26,73.04 85.22,73.04 37.05,0 60.95,-16.89 60.95,-27.89 0,-6.59 -5.9,-17.26 -15.07,-17.26zm-92.54 -70.11c0,-20.2 17.26,-34.53 37.46,-34.53 20.92,0 37.09,15.8 37.09,35.26 0,8.8 -2.93,10.99 -13.6,10.99l-60.95 0 0 -11.72 0 0zm236.84 -63.88l-11.77 0c-21.66,0 -38.88,15.39 -46.62,30.82l0 -16.16c0,-7.33 -8.06,-12.46 -17.63,-12.46 -10.99,0 -18.73,5.13 -18.73,12.46l0 148.73c0,6.23 7.74,12.82 18.73,12.82 11.04,0 19.83,-6.6 19.83,-12.82l0 -75.28c0,-33.43 22.03,-53.99 44.42,-53.99l11.77 0c7.7,0 14.7,-7.7 14.7,-17.26 -0.01,-9.17 -7.01,-16.86 -14.7,-16.86zm149.41 132.89c-8.42,0 -14.29,12.13 -38.55,12.13 -28.26,0 -40.75,-14.69 -40.75,-38.92l0 -33.06c0,-24.23 12.86,-38.92 40.38,-38.92 23.54,0 30.13,11.4 37.83,11.4 9.2,0 15.43,-11.4 15.43,-18.73 0,-12.87 -22.76,-26.79 -56.19,-26.79 -52.48,0 -75.98,31.92 -75.98,73.04l0 33.06c0,41.86 23.5,73.04 76.35,73.04 33.79,0 58.01,-15.03 58.01,-27.89 0.01,-7.69 -6.22,-18.36 -16.53,-18.36zm99.88 -132.89c-24.96,0 -55.46,10.26 -55.46,23.49 0,8.8 4.81,19.46 13.97,19.46 7.37,0 13.96,-11.03 40.75,-11.03 26.79,0 36.36,20.93 36.36,39.65l0 6.6 -16.16 0c-51.02,0 -85.91,11.04 -85.91,52.52 0,33.06 22.03,48.45 48.82,48.45 25,0 42.59,-13.56 55.45,-28.62l0 12.86c0,6.96 7.7,12.83 17.63,12.83 10.62,0 18.73,-5.87 18.73,-12.83l0 -92.17c0,-36.73 -20.2,-71.21 -74.18,-71.21zm35.63 113.06c0,17.63 -20.93,36.73 -39.29,36.73 -13.6,0 -23.86,-7.33 -23.86,-23.86 0,-23.49 26.05,-26.47 53.95,-26.47l9.2 0 0 13.6 0 0zm172.54 -113.06l-11.73 0c-21.66,0 -38.92,15.39 -46.61,30.82l0 -16.16c0,-7.33 -8.1,-12.46 -17.63,-12.46 -11.04,0 -18.73,5.13 -18.73,12.46l0 148.73c0,6.23 7.7,12.82 18.73,12.82 10.99,0 19.83,-6.6 19.83,-12.82l0 -75.28c0,-33.43 22.03,-53.99 44.42,-53.99l11.72 0c7.74,0 14.7,-7.7 14.7,-17.26 0,-9.17 -6.96,-16.86 -14.7,-16.86zm163.75 -101.34c-10.99,0 -19.46,5.13 -19.46,12.46l0 116.77c-8.06,-14.33 -24.59,-27.89 -47.72,-27.89 -35.99,0 -65.71,32.65 -65.71,72.3l0 33.8c0,38.19 30.09,73.04 64.61,73.04 1.72,0 3.38,-0.08 5.05,-0.25 29.65,-32.45 57.17,-66.89 82.33,-103.04l0 -164.73c0,-7.33 -8.06,-12.46 -19.1,-12.46zm-19.46 215.87c0,8.83 -16.49,30.49 -37.82,30.49 -20.19,0 -37.05,-19.09 -37.05,-38.92l0 -33.79c0,-19.1 16.85,-38.19 37.46,-38.19 18.32,0 37.41,14.33 37.41,38.19l0 42.22z"/>
  <rect class="fil4" x="14.28" y="1249.76" width="38.56" height="109.13" rx="8.67" ry="28.3"/>
  <path class="fil3" d="M1532.99 1296.52l-3.31 -17.55 -18.33 -4.72c-5.21,-1.35 -10.25,12.78 -10.25,19.58 0,33.06 38.9,67.96 65.69,67.96 25,0 36.9,-13.6 49.76,-28.66l0 12.86c0,6.96 7.7,12.83 17.63,12.83 10.62,0 18.73,-5.87 18.73,-12.83l0 -92.17 -39.46 57.57 -24.05 21.83 -32.61 2.58 -23.8 -39.28z"/>
 </g>
</svg>
