<?xml version="1.0" encoding="UTF-8"?>
<!DOCTYPE svg PUBLIC "-//W3C//DTD SVG 1.1//EN" "http://www.w3.org/Graphics/SVG/1.1/DTD/svg11.dtd">
<!-- Creator: CorelDRAW 2018 (64-Bit) -->
<svg xmlns="http://www.w3.org/2000/svg" xml:space="preserve" width="22.952mm" height="42.528mm" version="1.1" style="shape-rendering:geometricPrecision; text-rendering:geometricPrecision; image-rendering:optimizeQuality; fill-rule:evenodd; clip-rule:evenodd"
viewBox="0 0 2295.2 4252.8"
 xmlns:xlink="http://www.w3.org/1999/xlink">
 <defs>
  <style type="text/css">
   <![CDATA[
    .fil0 {fill:#C70E16}
    .fil1 {fill:#222222;fill-rule:nonzero}
   ]]>
  </style>
 </defs>
 <g id="Слой_x0020_1">
  <metadata id="CorelCorpID_0Corel-Layer"/>
  <g id="_2982660642784">
   <path class="fil0" d="M479.08 4252.73l-328.81 0.07 -150.27 0 0 -4252.83 234.48 0 244.6 0.24 3.55 -0.24 47.83 0c128.53,8.61 247.05,85.92 361.68,198.86 394.52,388.69 931.91,1063.13 1294.68,1689.93 76.55,132.26 119.7,393.13 41.01,516.84 -235.77,605.64 -894.67,1227.23 -1229.86,1648.51 -97.19,122.16 -299.83,189.22 -449.31,198.69l-68.55 0 -1.03 -0.07zm1000.26 -2440.68c175.35,0 317.5,142.15 317.5,317.5 0,175.35 -142.15,317.5 -317.5,317.5 -175.35,0 -317.5,-142.15 -317.5,-317.5 0,-175.35 142.15,-317.5 317.5,-317.5z"/>
   <path class="fil1" d="M1445.5 1998.71c2.15,-27.5 26.21,-48.04 53.71,-45.89 27.5,2.15 48.04,26.21 45.89,53.71 -5.77,71.54 -5.45,114.42 3.82,117.41 17.36,5.6 63.2,-28.37 146.14,-112.9 120.59,-122.91 227.48,-248.25 311.74,-383.53 82.72,-132.83 143.68,-275.45 174.4,-435.18 23.44,-299.96 18.01,-539.67 -16.31,-719.06 -32.67,-170.75 -90.49,-283.94 -173.41,-339.53l-2.64 -1.77 -2.05 -1.75c-34.73,-29.65 -67.77,-43.25 -99.07,-40.8 -32.09,2.51 -65.78,21.59 -101.01,57.19 -53.33,66.28 -80.41,108.7 -92.43,139.72 -7.3,18.86 -8.12,33.65 -6.33,48.41 5.13,3.98 12.52,8.33 20.33,12.91 28.65,16.83 60.55,35.6 85.01,80.68l1.61 2.96 1.51 4.27c19.4,54.71 35.34,165.46 33.7,309.28 -1.24,109.13 -32.58,364.88 -59.55,503.74l-50.87 -70.34 -32.69 -44.52c25.92,-133.49 42.34,-286.75 43.51,-389.66 1.44,-127.34 -11.09,-223.18 -26.75,-270.93 -11.62,-19.4 -29.64,-30 -45.88,-39.54 -21.74,-12.77 -41.71,-24.53 -58.08,-48.64l-5.91 -8.71 -1.9 -9.65c-6.99,-35.57 -9.25,-68.25 9.33,-116.2 15.84,-40.89 47.96,-92.28 109.15,-168.14l1.47 -1.81 1.66 -1.71c38.09,-38.99 77.16,-65.25 117.21,-78.76l128.83 0c30.41,10.26 60.43,27.87 90.05,52.83 104.6,71.62 175.71,205.53 213.24,401.71 20.19,105.53 30.94,229.94 32.25,373.21l0 60.33c-0.84,96.71 -5.68,201.42 -14.54,314.14l-0.15 1.97 -0.63 3.3c-33.04,174.41 -98.9,329.24 -188.3,472.79 -88.43,141.98 -199.91,272.81 -325.4,400.71 -112.88,115.04 -192.5,155.71 -247.7,137.9 -63.3,-20.42 -82.74,-99.06 -72.96,-220.15z"/>
  </g>
 </g>
</svg>
